<svg width="14" height="13" viewBox="0 0 14 13" fill="none" xmlns="http://www.w3.org/2000/svg">
<path fill-rule="evenodd" clip-rule="evenodd" d="M0.315424 0.319257C0.517386 0.114841 0.791305 0 1.07692 0H12.9231C13.2087 0 13.4826 0.11484 13.6846 0.319257C13.8865 0.523674 14 0.800923 14 1.09001V9.8101C14 10.0992 13.8865 10.3764 13.6846 10.5809C13.4826 10.7853 13.2087 10.9001 12.9231 10.9001H3.93742L1.7699 12.7444C1.61292 12.8779 1.42152 12.9633 1.21821 12.9906C1.01491 13.0178 0.808141 12.9857 0.622236 12.8981C0.436331 12.8104 0.279014 12.6709 0.168786 12.4959C0.0585573 12.3208 -1.92568e-07 12.1176 0 11.91V1.09001C0 0.800922 0.113462 0.523674 0.315424 0.319257ZM12.9231 1.09001L1.07692 1.09001L1.07692 11.91L3.24444 10.0657C3.4385 9.90063 3.6839 9.8101 3.93742 9.8101H12.9231V1.09001Z" fill="black"/>
</svg>
